,UFT-8,ISO-8559-1,WINDOWS-ISO,ASCII,KOI8-R,GB2312,UTF-7,LATIN2,UTF-8,ISO-8859-13,LATIN,X-USER-DEFINED,ISO-8859-11,ISO-8859-16,ISO-8859-15,US-ASCII,UTF8-8,"WINDOWS-1252, UTF-8, ISO-8859-1",ISO-8859,DEFAULT:ISO-8859-1,WINDOWS-1250,WINDOWS-1251,UTF-16LE,WINDOWS-1254,WINDOWS-1255,WINDOWS-1252,WINDOWS-1253,WINDOWS-1256,CP866,WINDOWS-1257,ISO-2022-CN,IBM860,BIG5,UTF-32LE,EUC-JP,MS874,GB18030,HZ-GB-2312,GBK,WINDOWS-874,X-SJIS,KS_C_5601-1987,ISO-2022-KR,ISO-8859-4,ISO-8859-3,TIS-620,DE_DE.UTF-8,UTF+8,ISO-8859-2,ISO-8859-1,ISO-8859-8,ISO-8859-7,UTF8_GENERAL_CI,ISO-8859-6,ISO-8859-5,ISO-8559-1(5),EUC-KR,UTF+13,ISO-8859-9,GREEK,LATIN1_GENERAL_CI,IBM866,WELCOME TO ANIMAL MEDICATION DIR,CHARSET,ISO-8859-8-I,8859-1,IBM864,KOI8R,ISO-2022-JP,ISO-8859-0,SHIFT_JIS,UTF-16BE,ISO-8895-1,sum
ac,0,0,0,0,0,0,0,0,83077,0,0,0,0,0,0,0,0,0,0,0,0,0,0,0,0,309,0,0,0,0,0,0,0,0,2383,0,0,0,0,0,0,0,0,0,0,0,0,0,0,2060,0,0,0,0,0,0,0,0,0,0,0,0,0,0,0,0,0,0,2374,0,1511,0,0,91714
ad,0,0,0,0,0,0,0,0,116997,0,0,0,0,0,0,0,0,0,0,0,0,0,0,0,0,0,0,0,0,0,0,0,0,0,0,0,0,0,0,0,0,0,0,0,0,0,0,0,0,26378,0,0,0,0,0,0,0,0,0,0,0,0,0,0,0,0,0,0,0,0,0,0,0,143375
ae,0,0,0,0,0,0,0,0,737639,0,0,0,0,0,0,0,0,0,0,0,0,0,20,0,0,529,0,7591,0,0,0,0,0,0,0,0,7,0,0,0,0,0,0,0,0,0,0,0,1240,24442,0,0,0,0,0,0,0,0,2,0,0,0,0,0,0,0,0,0,0,0,0,0,0,771470
af,0,0,0,0,0,0,0,0,63738,0,0,0,0,0,0,0,0,0,0,0,0,0,0,0,0,0,0,0,0,0,0,0,0,0,0,0,0,0,0,0,0,0,0,0,0,0,0,0,0,82,0,0,0,0,0,0,0,0,0,0,0,0,0,0,0,0,0,0,0,0,0,0,0,63820
ag,0,0,0,0,0,0,0,0,77130,0,0,0,0,0,26,0,0,0,0,0,0,3101,0,0,0,132,0,0,0,0,0,0,0,0,0,0,0,0,0,0,0,0,0,0,0,0,0,0,0,8819,0,0,0,0,0,0,0,0,0,0,0,0,0,0,0,0,0,0,0,0,52,0,0,89260
al,0,0,0,0,0,0,0,0,282374,0,0,0,0,0,0,0,0,0,0,0,0,0,0,0,0,178,0,0,0,0,0,0,0,0,0,0,0,0,0,0,0,0,0,0,0,0,0,0,1,22093,0,0,0,0,0,0,0,0,0,0,0,0,0,0,0,0,0,0,0,0,0,0,0,304646
am,0,0,0,0,0,0,0,0,76078,0,0,0,0,0,0,0,0,0,0,0,0,653,1,0,0,95,0,0,0,0,0,0,2,0,48,0,0,0,0,0,0,0,0,0,0,0,0,0,3,978,0,0,0,0,0,0,0,0,0,0,0,0,0,0,0,0,0,0,0,0,370699,0,0,448557
ao,0,0,0,0,0,0,0,0,92806,0,0,0,0,0,765,0,0,0,0,0,0,0,0,0,0,278,0,0,0,0,0,0,0,0,0,0,0,0,0,0,0,0,0,0,0,0,0,0,1,1481,0,0,0,0,0,0,0,0,0,0,0,0,0,0,0,0,0,0,0,0,0,0,0,95331
ar,0,0,0,0,0,0,0,0,10326251,0,0,0,0,0,37,2,0,0,0,0,0,0,45,0,0,128275,0,0,0,0,1,0,68,4,0,0,25,0,0,0,0,0,0,0,0,0,0,0,935,1195642,0,0,0,0,0,0,11463,0,39,0,0,0,0,0,0,0,0,0,0,0,372,3,0,11663162
at,1,0,0,0,19,0,0,0,18599342,0,0,0,0,0,122638,22,0,0,0,0,18613,357,229,52,0,249331,0,0,0,0,3,0,10,0,0,0,359,0,0,0,0,0,0,0,0,0,0,0,3573,1021493,0,6,0,0,120,0,833,0,174,0,0,0,0,2,0,0,0,0,55,0,174,141,0,20017547
au,0,0,0,0,6,0,2,0,1405184,0,0,0,0,0,0,2,0,0,0,0,0,55,25,0,0,17617,0,0,0,0,0,0,101,2,3,0,10,0,0,0,0,0,0,0,0,0,0,0,183,178608,0,0,0,0,0,0,28,0,0,0,0,0,0,0,0,0,0,0,33,0,456,0,0,1602315
az,0,0,0,0,3,0,0,0,4866174,0,0,0,0,0,0,0,0,0,0,0,0,127069,164,1,0,1275,0,0,0,0,0,0,11,0,0,0,21,0,0,0,0,0,0,0,0,0,0,0,1498,13273,0,0,0,0,0,0,0,0,114,0,0,0,0,0,0,0,0,0,0,0,283,1574,0,5011460
ba,0,0,0,0,40,0,0,0,2389174,0,0,0,0,0,0,0,0,0,0,0,6990,922,1,0,0,902,0,0,0,0,0,0,3,0,0,0,81,0,0,0,0,0,0,0,0,0,0,0,1396,12484,0,0,0,0,0,0,109,0,31,0,0,0,0,0,0,0,0,0,0,0,4,0,0,2412137
bb,0,0,0,0,0,0,0,0,92629,0,0,0,0,0,0,0,0,0,0,0,0,0,1,0,0,196,0,0,0,0,0,0,0,0,0,0,0,0,0,0,0,0,0,0,0,0,0,0,0,3970,0,0,0,0,0,0,0,0,0,0,0,0,0,0,0,0,0,0,0,0,0,0,0,96796
bd,0,0,0,0,0,0,28,0,1926089,0,0,0,0,0,0,0,0,0,0,0,0,0,4,0,0,676,0,0,0,0,0,0,0,0,0,0,0,0,0,0,0,0,0,0,0,0,0,0,112,12257,0,0,0,0,0,0,0,0,8,0,0,0,0,0,0,0,0,0,1,0,2,0,0,1939177
be,0,0,0,0,0,31,0,0,1498606,0,0,0,0,0,1253,0,0,0,0,0,185,135,21,0,0,58693,0,232,0,0,0,0,15,0,0,0,10,0,0,0,0,0,0,0,0,0,0,0,956,157906,0,34,0,0,0,0,0,0,5,0,0,0,0,0,0,0,0,0,0,0,22,0,0,1718104
bf,0,0,0,0,0,0,0,0,135871,0,0,0,0,0,0,0,0,0,0,0,0,0,0,0,0,1236,0,0,0,0,0,0,0,0,0,0,0,0,0,0,0,0,0,0,0,0,0,0,0,4021,0,0,0,0,0,0,0,0,0,0,0,0,0,0,0,0,0,0,0,0,0,0,0,141128
bg,0,0,0,0,59,0,0,0,13638667,0,0,0,0,0,0,0,0,0,0,0,5,2782564,312,0,0,2512,0,0,0,0,5,0,86,7,2,0,11,0,0,0,0,0,1,0,0,0,0,0,2222,75163,0,0,0,0,1102,0,449,0,13,0,0,0,0,0,0,0,0,0,5,0,8,4,0,16503197
bh,0,0,0,0,0,0,0,0,248226,0,0,0,0,0,0,0,0,0,0,0,0,0,2,0,0,270,0,705,0,0,0,0,0,0,0,0,0,0,0,0,0,0,0,0,0,0,0,0,16,14274,0,0,0,0,0,0,0,0,0,0,0,0,0,0,0,0,0,0,0,0,0,0,0,263493
bm,0,0,0,0,0,0,0,0,115813,0,0,0,0,0,0,0,0,0,0,0,0,0,0,0,0,0,0,0,0,0,0,0,0,0,0,0,0,0,0,0,0,0,0,0,0,0,0,0,0,780,0,0,0,0,0,0,0,0,0,0,0,0,0,0,0,0,0,0,0,0,0,0,0,116593
bo,0,0,0,0,0,0,0,0,1300878,0,0,0,0,0,0,0,0,0,0,0,0,0,0,0,0,2975,0,0,0,0,0,0,2,0,0,0,0,0,0,0,0,0,0,0,0,0,0,0,0,72752,0,0,0,0,0,0,1,0,0,0,0,0,0,0,0,0,0,0,0,0,4,0,0,1376612
br,0,0,0,0,1,0,17,0,25978294,0,0,0,0,0,33775,3,0,0,0,0,2,180,2789,0,0,496783,0,0,0,0,6,208,121,19,116,0,56,0,0,0,0,0,0,0,0,0,0,0,2057,2287262,0,7,0,0,0,0,342,0,286,0,0,17,0,0,0,0,0,0,0,0,11110,19,0,28813470
bv,0,0,0,0,0,0,0,0,0,0,0,0,0,0,0,0,0,0,0,0,0,0,0,0,0,0,0,0,0,0,0,0,0,0,0,0,0,0,0,0,0,0,0,0,0,0,0,0,0,0,0,0,0,0,0,0,0,0,0,0,0,0,0,0,0,0,0,0,0,0,0,0,0,0
bw,0,0,0,0,0,0,0,0,69724,0,0,0,0,0,0,0,0,0,0,0,0,0,0,0,0,11,0,0,0,0,0,0,0,0,0,0,0,0,0,0,0,0,0,0,0,0,0,0,0,12455,0,0,0,0,0,0,0,0,0,0,0,0,0,0,0,0,0,0,0,0,0,0,0,82190
by,0,0,0,0,3609,0,0,0,12095451,0,0,0,0,0,0,0,0,0,0,0,1,1393509,42,0,2,2720,0,0,0,0,4,0,1,0,7,0,9,0,0,0,0,0,0,0,0,0,0,0,136,21963,0,0,0,0,0,0,53,0,41,0,0,0,0,0,0,0,0,1,3,0,167,13,0,13517732
ca,0,0,0,0,2,0,0,0,6383587,0,0,0,0,0,13087,0,0,0,0,0,0,17,68,8,0,69709,0,0,0,0,0,0,68,17,15,0,1778,0,0,0,0,0,0,0,0,0,0,0,801,1165334,0,0,0,0,34,0,1572,0,52,0,0,0,0,0,0,0,0,0,4,0,575,12,0,7636740
cc,0,0,0,0,0,2,0,0,193335,0,0,0,0,0,0,0,0,0,0,0,0,42,0,0,0,0,0,0,0,0,0,0,314,0,38764,0,21422,0,237,0,0,0,0,0,0,0,0,0,0,2194,0,0,0,0,0,0,0,0,0,0,0,0,0,0,0,0,0,0,0,0,732,0,0,257042
ch,0,0,0,0,6,0,13,0,21853166,0,0,0,0,0,76936,4,0,0,0,0,866,586,417,0,2,313213,0,0,0,0,16,0,222,51,268,0,185,0,0,3,0,0,0,0,6,0,0,0,671,1300597,1,0,0,0,81,0,325,0,107,0,0,0,0,0,0,0,0,0,9,0,652,41,0,23548444
ci,0,0,0,0,0,0,0,0,141657,0,0,0,0,0,7735,0,0,0,0,0,0,0,0,0,0,4418,0,0,0,0,0,0,0,0,0,0,0,0,0,0,0,0,0,0,0,0,0,0,0,782,0,0,0,0,0,0,0,0,0,0,0,0,0,0,0,0,0,0,0,0,0,0,0,154592
cl,0,0,0,0,0,0,0,0,754909,0,0,0,0,0,0,0,0,0,0,0,0,0,5,0,0,13586,0,0,0,0,19,0,1,0,0,0,21,0,0,0,0,0,0,0,0,0,0,0,15,93195,0,0,0,0,0,0,0,0,0,0,0,0,0,0,0,0,0,0,0,0,1,0,0,861752
cm,0,0,0,0,0,0,0,0,137504,0,0,0,0,0,0,0,0,0,0,0,0,0,0,0,0,57,0,0,0,0,0,0,2,0,0,0,3941,0,0,0,0,0,0,0,0,0,0,0,5,2601,0,0,0,0,0,0,0,0,0,0,0,0,0,0,0,0,0,0,0,0,547,0,0,144657
cn,0,0,0,0,0,2324,0,0,8646146,0,0,0,0,0,0,0,0,0,0,0,2,267,662,0,0,93,1,3,0,0,8,0,36084,71,1596,0,3314553,1,673,0,0,0,0,0,0,0,0,0,901,414899,0,0,0,0,0,0,904,0,136,0,0,0,0,0,0,0,0,0,18,0,1050,18,0,12420410
co,0,0,0,0,0,0,6,0,7046877,0,0,0,0,0,13742,0,0,0,0,0,0,0,2,0,0,39416,0,2319,0,0,1,0,28,10,369,0,994,0,0,0,0,0,0,0,0,0,0,0,416,256447,0,0,0,0,0,0,0,0,23,0,0,0,0,0,0,0,0,0,0,0,139,1,0,7360790
com,0,0,0,70,16,16,283,0,17351710,0,0,0,0,0,1759,6,0,0,0,4,311,4360,281,308,100,61396,1,746,0,0,1,0,22843,1,3850,0,36098,0,3,0,158,0,0,0,0,10,0,0,1338,548585,1,129,0,0,0,0,4422,0,332,0,0,0,0,0,0,0,0,0,9,0,14985,2,14,18054148
cr,0,0,0,0,0,0,0,0,920088,0,0,0,0,0,268,0,0,0,0,0,0,0,9,0,0,7514,0,0,0,0,0,0,0,1,0,0,0,0,0,0,0,0,0,0,0,0,0,0,1,46314,0,0,0,0,0,0,3,0,0,0,0,0,0,0,0,0,0,0,0,0,0,0,0,974198
cu,0,0,0,0,0,0,0,0,526952,0,0,0,0,0,0,0,0,0,0,0,0,0,6,0,0,11503,0,0,0,0,0,0,3,0,0,0,0,0,0,0,0,0,0,0,0,0,0,0,38,57005,0,0,0,0,0,0,36,0,0,0,0,0,0,0,0,0,0,0,0,0,0,0,0,595543
cv,0,0,0,0,0,0,0,0,219244,0,0,0,0,0,590,0,0,0,0,0,0,0,0,0,0,224,0,0,0,0,0,0,0,0,0,0,0,0,0,0,0,0,0,0,0,0,0,0,0,19762,0,0,0,0,0,0,0,0,0,0,0,0,0,0,0,0,0,0,0,0,0,0,0,239820
cx,0,0,0,0,0,0,0,0,72206,0,0,0,0,0,0,0,0,0,0,0,0,0,0,0,0,0,0,0,0,0,0,0,0,0,0,0,0,0,0,0,0,0,0,0,0,0,0,0,0,0,0,0,0,0,0,0,0,0,0,0,0,0,0,0,0,0,0,0,0,0,2495,0,0,74701
cy,0,0,0,0,0,0,0,0,1593656,0,0,0,0,0,0,0,0,0,0,0,0,0,2,0,0,172,254,0,0,0,0,0,0,0,0,0,0,0,0,0,0,0,0,0,0,0,0,0,0,6026,0,9848,0,0,0,0,0,0,0,0,0,0,0,0,0,0,0,0,0,0,0,0,0,1609958
cz,0,0,0,0,5,0,0,1473,30875921,0,0,0,0,0,15,10,0,0,0,0,1727496,3994,1012,0,0,103317,1,8,0,9,2,0,96,9,154,0,261,0,0,0,0,0,0,0,0,0,0,0,144093,214599,0,0,0,0,4,0,2853,0,273,0,0,0,0,35,0,0,0,0,1,0,63,31,0,33075735
de,6,0,148,0,48,0,0,0,10744092,0,0,0,0,0,65842,103,0,408,0,0,29,354,153,143,0,130531,0,0,0,0,1,0,19,30,0,0,14,0,0,0,0,0,8,0,0,0,35,0,1904,640129,73,0,0,0,5,0,267,0,161,0,0,0,0,0,0,106,0,0,8,0,27,1,0,11584645
dk,0,0,0,0,35,0,0,0,19296376,0,0,0,0,0,3957,2,0,0,0,0,0,423,264,0,1,476981,0,30,0,0,2,0,164,14,4,0,53,0,0,0,0,0,0,11,0,0,0,0,2062,1030441,0,32,275,0,2,0,1091,0,71,0,0,0,0,0,0,0,0,0,0,0,77,5,0,20812373
do,0,0,0,0,0,0,0,0,890125,0,0,0,0,0,0,0,0,0,0,0,0,0,1,0,0,1102,0,0,0,0,0,0,0,0,0,0,2,0,0,0,0,0,0,0,0,0,0,0,3,12185,0,0,0,0,0,0,0,0,2,0,0,0,0,0,0,0,0,0,0,0,1,0,0,903421
dz,0,0,0,0,0,0,0,0,903945,0,0,0,0,0,62,0,0,0,0,0,0,0,3,0,0,3482,0,853,0,0,0,0,0,0,0,0,0,0,0,0,0,0,0,0,0,0,0,0,5,16756,0,0,0,0,0,0,0,0,0,0,0,0,0,0,0,0,0,0,0,0,0,0,0,925106
ec,0,0,0,0,0,0,0,0,1235156,0,0,0,0,0,1,0,0,0,0,0,0,4725,19,0,0,3695,0,0,0,0,0,0,0,0,0,0,0,0,0,0,0,0,0,0,0,0,0,0,26,29509,0,0,0,1210,0,0,0,0,484,0,0,0,0,0,0,0,0,0,0,0,2,0,0,1274827
ee,0,0,0,0,535,0,0,0,8503202,882,0,0,0,0,4872,4,0,0,0,0,0,107503,182,0,0,32893,0,0,0,23732,1,0,10,846,8,0,477,0,0,0,0,0,0,31407,0,0,0,0,648,176713,0,0,0,0,34,0,105,0,22,0,0,0,0,0,0,0,0,0,0,0,454,6,0,8884536
eg,0,0,0,0,0,0,0,0,611947,0,0,0,0,0,0,0,0,0,0,0,0,0,18,0,0,351,0,5743,0,0,0,0,0,0,0,0,0,0,0,0,0,0,0,0,0,0,0,0,12,23172,0,0,0,0,0,0,0,0,0,0,0,0,0,0,0,0,167,0,0,0,4,33,0,641447
et,0,0,0,0,0,0,0,0,338990,0,0,0,0,0,0,0,0,0,0,0,0,0,0,0,0,7,1,0,0,0,0,0,0,0,0,0,0,0,0,0,0,0,0,0,0,0,0,0,0,485,0,0,0,0,0,0,0,0,0,0,0,0,0,0,0,0,0,0,0,0,0,0,0,339483
eu,0,0,0,0,0,0,0,0,9027373,0,0,0,0,0,1941,1,0,0,0,0,25992,11675,22,0,0,25952,9,3988,0,0,0,0,1868,9,2,0,1599,0,0,0,0,0,0,0,0,0,0,0,27586,147155,0,262,0,0,0,0,131,0,171,0,0,0,0,0,0,0,0,0,0,0,17,3,0,9275756
fj,0,0,0,0,0,0,0,0,49085,0,0,0,0,0,0,0,0,0,0,0,0,0,0,0,0,523,0,0,0,0,0,0,0,0,0,0,0,0,0,0,0,0,0,0,0,0,0,0,0,24151,0,0,0,0,0,0,0,0,0,0,0,0,0,0,0,0,0,0,0,0,0,0,0,73759
fm,0,0,0,0,0,0,0,0,617913,0,0,0,0,0,0,0,0,0,0,0,0,1932,0,0,2941,159,0,0,0,0,0,0,3,0,0,0,0,0,0,0,0,0,0,0,0,0,0,0,6005,41029,2,0,0,0,0,0,0,0,0,0,0,0,0,0,7,0,0,0,0,0,2867,0,0,672858
fo,0,0,0,0,0,0,0,0,151915,0,0,0,0,0,0,0,0,0,0,0,0,0,0,0,0,171,0,0,0,0,0,0,0,0,0,0,0,0,0,0,0,0,0,0,0,0,0,0,0,1825,0,0,0,0,0,0,35,0,3,0,0,0,0,0,0,0,0,0,0,0,0,0,0,153949
ga,0,0,0,0,0,0,0,0,30,0,0,0,0,0,0,0,0,0,0,0,0,0,0,0,0,0,0,0,0,0,0,0,0,0,0,0,0,0,0,0,0,0,0,0,0,0,0,0,0,0,0,0,0,0,0,0,0,0,0,0,0,0,0,0,0,0,0,0,0,0,0,0,0,30
ge,0,0,0,0,0,0,0,0,2615614,0,0,0,0,0,0,0,0,0,0,0,0,6539,345,0,0,3300,183,0,0,0,3,0,1,0,0,0,81,0,0,0,0,0,0,0,0,0,0,0,99,14783,0,0,0,0,0,0,0,0,21,0,0,0,0,0,0,0,0,0,0,0,10519,19,0,2651507
gg,0,0,0,0,0,0,0,0,72409,0,0,0,0,0,0,0,0,0,0,0,0,0,1,0,0,216,0,0,0,0,0,0,0,0,0,0,1,0,0,0,0,0,0,0,0,0,0,0,3,1704,0,0,0,0,0,0,0,0,0,0,0,0,0,0,0,0,0,0,0,0,0,0,0,74334
gh,0,0,0,0,0,0,0,0,109003,0,0,0,0,0,0,0,0,0,0,0,0,0,0,0,0,2878,0,0,0,0,0,0,0,0,0,0,0,0,0,0,0,0,0,0,0,0,0,0,0,15,0,0,0,0,0,0,0,0,0,0,0,0,0,0,0,0,0,0,0,0,0,0,0,111896
gi,0,0,0,0,0,0,0,0,100086,0,0,0,0,0,0,0,0,0,0,0,0,0,1,0,0,3851,0,0,0,0,0,0,0,0,0,0,0,0,0,0,0,0,0,0,0,0,0,0,1,10485,0,0,0,0,0,0,0,0,0,0,0,0,0,0,0,0,0,0,0,0,0,0,0,114424
gl,0,0,0,0,0,0,0,0,53596,0,0,0,0,0,0,0,0,0,0,0,0,0,61,0,0,3113,0,0,0,0,0,0,0,0,0,0,0,0,0,0,0,0,0,0,0,0,0,0,0,240,0,0,0,0,0,0,0,0,0,0,0,0,0,0,0,0,0,0,0,0,0,0,0,57010
gm,0,0,0,0,0,0,0,0,20749,0,0,0,0,0,0,0,0,0,0,0,0,365,0,0,0,4,0,0,0,0,5,0,0,0,0,0,0,0,0,0,0,0,0,0,0,0,0,0,0,303,0,0,0,0,0,0,0,0,0,0,0,0,0,0,0,0,0,0,0,0,0,1,0,21427
gr,0,0,0,0,22,0,13,0,27187703,0,0,0,0,0,0,3,0,0,0,0,13,2854,682,0,0,13792,127837,0,0,0,11,0,19,38,942,0,548,0,0,0,0,0,0,0,0,0,0,0,3110,137555,0,802535,0,0,36,0,645,0,2017,104,0,0,0,0,0,0,0,0,3,0,19,2,0,28280503
gs,0,0,0,0,0,0,0,0,33695,0,0,0,0,0,0,0,0,0,0,0,0,3494,0,0,0,85,0,0,0,0,0,0,0,0,8640,0,6,0,0,0,0,0,0,0,0,0,0,0,0,785,0,0,0,0,0,0,0,0,0,0,0,0,0,0,0,0,0,0,4,0,23590,0,0,70299
gt,0,0,0,0,0,0,0,0,436609,0,0,0,0,0,44,0,0,0,0,0,0,0,2,0,0,551,0,0,0,0,0,0,0,0,0,0,1,0,0,0,0,0,0,0,0,0,0,0,0,10263,0,0,0,0,0,0,0,0,0,0,0,0,0,0,0,0,0,0,0,0,2,0,0,447472
hn,0,0,0,0,0,0,0,0,291269,0,0,0,0,0,0,0,0,0,0,0,0,0,0,0,0,412,0,0,0,0,0,0,0,0,0,0,0,0,0,0,0,0,0,0,0,0,0,0,0,3416,0,0,0,0,0,0,0,0,1,0,0,0,0,0,0,0,0,0,0,0,0,0,0,295098
hr,0,0,0,0,0,0,0,0,6082159,0,0,0,0,0,0,0,0,0,0,0,45390,2843,75,0,0,24533,0,0,0,0,1,0,18,815,0,0,23,0,0,0,0,0,0,0,0,0,0,0,109386,68361,0,0,0,0,1,0,42,0,23,0,0,0,0,0,0,0,0,0,12,0,18,0,0,6333700
id,0,0,0,0,0,0,2312,0,4601593,0,0,0,0,0,0,0,0,0,0,0,0,0,24,0,0,8131,0,1142,0,0,0,0,31,1,0,0,8,0,0,0,0,0,0,0,0,0,0,2,3103,154183,0,0,0,0,1,0,1919,0,4389,0,0,0,0,0,0,0,0,0,2,0,13,0,0,4776854
in,0,0,0,0,0,0,1378,0,8610217,0,0,3,0,0,1,11,0,0,0,0,0,9909,1030,0,0,38425,0,0,0,0,2,0,26,112,132,0,130,0,0,0,0,0,0,0,0,0,0,0,666,476824,0,0,0,0,0,0,202,0,22,0,0,4,0,0,0,0,0,0,0,0,24437,21,0,9163552
io,0,0,0,0,0,0,0,0,1007310,0,0,0,0,0,0,0,0,0,0,0,0,0,0,0,0,3,0,0,0,0,0,0,2,0,0,0,0,0,0,0,0,0,0,0,0,0,0,0,221,13887,0,0,0,0,0,0,0,0,0,0,0,0,0,0,0,0,0,0,0,0,36,0,0,1021459
ir,0,0,0,0,0,0,148,0,21139960,0,0,0,0,0,0,0,0,0,0,0,0,165,578,0,1,3807,0,1838,0,0,46,0,73,15,0,0,228,0,0,1,0,0,0,0,0,0,0,0,325,146319,0,0,0,0,0,0,36,0,576,0,0,0,0,0,0,0,0,0,1,0,0,3,0,21294120
is,0,675,0,0,0,0,0,0,1850903,0,0,0,0,0,0,0,0,0,0,0,0,174,25,0,0,12533,0,0,0,0,0,0,7,0,0,0,67,0,0,0,0,0,0,0,0,0,0,0,9,291390,0,0,0,0,0,0,88,0,12,0,0,0,0,0,0,0,0,0,1,0,10,4,0,2155898
jm,0,0,0,0,0,0,0,0,167387,0,0,0,0,0,0,0,0,0,0,0,0,0,0,0,0,715,0,0,0,0,0,0,0,2,0,0,0,0,0,0,0,0,0,0,0,0,0,0,1,6805,0,0,0,0,0,0,109,0,0,0,0,0,0,0,0,0,0,0,0,0,30,0,0,175049
kh,0,0,0,0,0,0,0,0,215118,0,0,0,0,0,0,0,0,0,0,0,0,0,0,0,0,478,2,0,0,0,0,0,0,0,0,0,839,0,0,0,0,0,0,0,0,0,0,0,97,2325,0,0,0,0,0,0,0,0,0,0,0,0,0,0,0,0,0,0,0,0,18,0,0,218877
kr,0,0,0,0,1,0,0,0,21093115,0,0,0,0,0,0,0,0,0,0,0,0,1,4632,0,0,1500,0,0,0,0,29,0,3461,106,604,0,35911,0,0,0,0,8,62,0,0,0,0,0,1615,99906,0,0,0,0,1,0,13053259,0,214,0,0,0,0,0,1,0,0,0,101,0,6627,70,0,34301224
ky,0,0,0,0,0,0,0,0,97673,0,0,0,0,0,0,0,0,0,0,0,0,0,0,0,0,1822,0,0,0,0,0,0,0,0,0,0,0,0,0,0,0,0,0,0,0,0,0,0,0,17644,0,0,0,0,0,0,0,0,0,0,0,0,0,0,0,0,0,0,0,0,0,0,0,117139
la,0,0,0,0,0,0,0,0,331690,0,0,0,0,0,0,0,0,0,0,0,0,0,0,0,0,10,0,0,0,0,0,0,0,0,30,0,21286,0,0,0,0,0,0,0,0,0,0,0,2,323,0,0,0,0,0,0,1,0,0,0,0,0,0,0,0,0,0,0,0,0,30,0,0,353372
li,0,0,0,0,0,0,0,0,458462,0,0,0,0,0,79,0,0,0,0,0,0,4412,0,0,175,11529,0,22,0,0,0,0,0,0,0,0,1870,0,0,0,0,0,0,46,0,42,0,0,4085,74905,0,0,0,0,0,0,22,0,45,0,0,0,0,0,0,0,0,0,0,0,0,0,0,555694
lk,0,0,0,0,0,0,0,0,1916929,0,0,0,0,0,0,0,0,0,0,0,0,0,0,0,0,35229,0,0,0,0,0,0,234,0,0,0,7,0,0,0,0,0,0,0,0,0,0,0,56,61496,0,0,0,0,0,0,0,0,4,0,0,0,0,0,0,0,0,0,0,0,9,0,0,2013964
lt,0,0,0,0,67,0,7,0,9851452,3417,0,0,0,0,0,0,0,0,0,0,279,9754,239,0,0,5755,0,0,0,52188,1,0,17,20,122,0,53,0,0,0,0,0,0,0,0,0,0,0,704,47992,0,0,0,0,7,0,1989,0,581,0,0,0,0,0,0,0,0,0,0,0,15,11,0,9974670
lu,0,0,0,0,0,0,0,0,2949247,0,0,0,0,0,10675,0,0,0,0,0,180,0,0,0,0,50854,0,0,0,0,1,0,2,0,0,0,0,0,0,0,0,0,0,0,0,0,0,0,6,100788,0,0,0,0,23,0,0,0,15,0,0,0,0,0,0,0,0,0,0,0,0,0,0,3111791
lv,0,0,0,0,604,0,0,0,3647425,817,0,0,0,0,21,179,0,0,0,0,0,26444,122,0,2,1758,0,0,0,11423,3,0,9,0,0,0,5,0,0,1,0,0,0,0,0,0,0,0,171,28657,0,0,0,0,0,0,202,0,90,0,0,0,0,0,0,0,0,0,2,0,2058,0,0,3719993
ly,0,0,0,0,0,0,0,0,2191,0,0,0,0,0,0,0,0,0,0,0,0,0,0,0,0,20,0,12,0,0,0,0,0,0,0,0,0,0,0,0,0,0,0,0,0,0,0,0,0,7,0,0,0,0,0,0,0,0,0,0,0,0,0,0,0,0,0,0,0,0,0,0,0,2230
mc,0,0,0,0,0,0,0,0,40067,0,0,0,0,0,0,0,0,0,0,0,0,0,0,0,0,3146,0,0,0,0,0,0,0,0,0,0,0,0,0,0,0,0,0,0,0,0,0,0,0,9811,0,0,0,0,0,0,0,0,0,0,0,0,0,0,0,0,0,0,0,0,0,0,0,53024
md,0,0,0,0,0,0,0,0,4762498,0,0,0,0,0,0,0,0,0,0,0,585,128738,176,0,1,537,0,0,0,0,0,0,1,1,103,0,0,0,0,1,0,0,0,0,0,0,0,0,767,20602,0,0,0,0,0,0,108,0,22,0,0,0,0,0,0,0,0,0,1,0,4543,0,0,4918684
me,0,0,0,0,0,0,0,0,450104,0,0,0,0,0,0,0,0,0,0,0,421,236,0,0,0,87,0,0,0,0,0,0,1,0,1879,0,4784,0,0,0,0,0,0,0,0,0,0,0,5,10926,0,0,0,0,0,0,0,0,0,0,0,0,0,0,0,0,0,0,0,0,3501,0,0,471944
mk,0,0,0,0,0,0,0,0,1418601,0,0,0,0,0,0,0,0,0,0,0,0,28808,41,0,0,1045,0,0,0,0,0,0,4,0,0,0,1,0,0,0,0,0,0,0,0,0,0,0,9,5521,0,0,0,0,12,0,0,0,0,0,0,0,0,0,0,0,0,0,0,0,0,0,0,1454042
mm,0,0,0,0,0,0,0,0,3550,0,0,0,0,0,0,0,0,0,0,0,0,0,0,0,0,0,0,0,0,0,0,0,0,0,0,0,0,0,0,0,0,0,0,0,0,0,0,0,0,0,0,0,0,0,0,0,0,0,0,0,0,0,0,0,0,0,0,0,0,0,0,0,0,3550
mo,0,0,0,0,0,0,0,0,38014,0,0,0,0,0,0,0,0,0,0,0,0,0,0,0,0,206,0,0,0,0,0,0,322,0,6,0,1,0,0,0,0,0,0,0,0,0,0,0,0,321,0,0,0,0,0,0,0,0,0,0,0,0,0,0,0,0,0,0,0,0,4,0,0,38874
ms,0,0,0,0,0,0,0,0,20254,0,0,0,0,0,0,0,0,0,0,0,1,203,0,0,0,570,0,0,0,0,0,0,1,0,5727,0,3,0,0,0,0,0,0,0,0,0,0,0,1,677,0,0,0,0,0,0,0,0,0,0,0,0,0,0,0,0,0,0,0,0,234669,0,0,262106
mu,0,0,0,0,0,0,0,0,104354,0,0,0,0,0,0,0,0,0,0,0,0,0,0,0,0,2378,0,0,0,0,0,0,0,0,1912,0,0,0,0,0,0,0,0,0,0,0,0,0,0,4903,0,0,0,0,0,0,0,0,0,0,0,0,0,0,0,0,0,0,0,0,2099,0,0,115646
mv,0,0,0,0,0,0,0,0,84663,0,0,0,0,0,0,0,0,0,0,0,0,0,0,0,0,98,0,0,0,0,0,0,0,0,0,0,0,0,0,0,0,0,0,0,0,0,0,0,1,1253,0,0,0,0,0,0,0,0,9,0,0,0,0,0,0,0,0,0,0,0,0,0,0,86024
mx,0,0,0,0,0,0,5,0,3602318,0,0,0,0,0,708,1,0,0,0,0,42,1,67,0,0,39146,0,0,0,0,0,0,54,1,1,0,175,0,0,0,0,0,0,0,0,0,0,0,630,222591,0,0,0,0,0,0,65,0,0,0,1,0,0,0,0,0,0,0,0,0,115,1,0,3865922
na,0,0,0,0,0,0,0,0,273895,0,0,0,0,0,0,0,0,0,0,0,0,0,0,0,0,119,0,0,0,0,0,0,0,0,0,0,0,0,0,0,0,0,0,0,0,0,0,0,0,32338,0,0,0,0,0,0,0,0,0,0,0,0,0,0,0,0,0,0,0,0,0,0,0,306352
nc,0,0,0,0,0,0,0,0,418724,0,0,0,0,0,0,0,0,0,0,0,0,0,1,0,0,745,0,0,0,0,0,0,0,0,0,0,0,0,0,0,0,0,0,0,0,0,0,0,0,42183,0,0,0,0,0,0,72,0,0,0,0,0,0,0,0,0,0,0,0,0,0,0,0,461725
ni,0,0,0,0,0,0,0,0,568814,0,0,0,0,0,0,0,0,0,0,0,0,0,0,0,0,5132,0,0,0,0,0,0,0,0,0,0,0,0,0,0,0,0,0,0,0,0,0,0,3,10735,0,0,0,0,0,0,0,0,0,0,0,0,0,0,0,0,0,0,0,0,0,0,0,584684
nl,0,0,0,0,71,2,895,0,32095593,0,16,0,0,0,12568,501,0,0,36,0,19,2199,816,1,6,236914,0,7,2,12,10,0,101,4,58,0,287,0,0,0,0,0,0,0,0,0,0,0,3825,1295436,1,11,0,0,4,35,1379,0,934,0,0,0,0,9,0,0,0,0,4,182,527,173,0,33652638
no,0,0,0,0,340,0,0,0,7036882,0,0,0,0,0,5649,1,0,0,0,0,0,799,16,0,0,55448,0,0,0,0,0,0,0,0,248,0,1,0,0,0,0,0,0,0,0,0,0,0,140,700131,0,35,0,0,0,0,165,0,488,0,0,0,0,0,0,0,0,0,2,0,17,0,0,7800362
nu,0,0,0,0,0,0,0,0,390748,0,0,0,0,0,0,0,0,0,0,0,0,0,4,0,0,4311,0,0,0,0,0,0,0,0,0,0,0,0,0,0,0,0,0,0,0,0,0,0,7,67558,0,0,0,0,0,0,0,0,1,0,0,0,0,0,0,0,0,0,0,0,0,0,0,462629
nz,0,0,0,0,0,29,41,0,3410031,0,0,0,0,0,708,0,0,0,0,0,0,0,24,0,0,6730,0,0,0,0,3,0,2,0,868,0,2235,0,0,0,0,0,0,0,0,0,0,0,200,153697,0,0,0,0,0,0,2270,6,2,0,0,0,0,0,0,0,0,0,0,0,771,0,0,3577617
pa,0,0,0,0,0,0,0,0,412145,0,0,0,0,0,0,0,0,0,0,0,0,0,0,0,0,181,0,0,0,0,0,0,0,0,0,0,0,0,0,0,0,0,0,0,0,0,0,0,0,937,0,0,0,0,0,0,0,0,0,0,0,0,0,0,0,0,0,0,0,0,0,0,0,413263
pe,0,0,0,0,0,0,0,0,6165667,0,0,0,0,0,2535,0,0,0,0,0,0,0,1,0,0,6210,0,0,0,0,0,0,9,0,0,0,42,0,0,0,0,0,0,0,0,0,0,0,405,141438,0,0,0,0,0,0,23,0,28,0,0,0,0,0,0,0,0,0,0,0,40,0,0,6316398
pf,0,0,0,0,0,0,0,0,138007,0,0,0,0,0,0,0,0,0,0,0,0,0,0,0,0,1705,0,0,0,0,0,0,0,0,0,0,0,0,0,0,0,0,0,0,0,0,0,0,1,6281,0,0,0,0,0,0,0,0,0,0,0,0,0,0,0,0,0,0,0,0,0,0,0,145994
pg,0,0,0,0,0,0,0,0,9261,0,0,0,0,0,0,0,0,0,0,0,0,0,0,0,0,0,0,0,0,0,0,0,0,0,0,0,0,0,0,0,0,0,0,0,0,0,0,0,0,273,0,0,0,0,0,0,0,0,0,0,0,0,0,0,0,0,0,0,0,0,0,0,0,9534
ph,0,0,0,0,0,0,0,0,1716287,0,0,0,0,0,0,0,0,0,0,0,771,0,0,0,0,6780,0,0,0,0,1,0,0,0,0,0,0,0,0,0,0,0,0,0,0,0,0,0,832,121641,0,0,0,0,0,0,5220,0,10,0,0,0,0,0,0,0,0,0,0,0,3634,0,0,1855176
pk,0,0,0,0,0,0,100,0,233815,0,0,0,0,0,0,0,0,0,0,0,0,0,241,0,0,821,0,0,0,0,0,0,9,0,0,0,0,0,0,0,0,0,0,0,0,0,0,0,4,10864,0,0,0,0,0,0,0,0,0,0,0,0,0,0,0,0,0,0,0,0,1,11,0,245866
pl,0,0,0,0,110,0,0,645,36031594,0,0,0,0,0,0,1,0,0,0,0,129201,8662,916,0,0,100319,53,7,0,0,7,0,10401,349,6,0,470,0,0,0,0,0,0,0,0,0,0,0,2078157,208754,0,104,0,0,376,0,1675,0,199,0,0,0,0,0,0,0,0,0,1,0,1856,1,0,38573864
py,0,0,0,0,0,0,0,0,171066,0,0,0,0,0,0,0,0,0,0,0,0,0,0,0,0,834,0,0,0,0,0,0,0,0,0,0,1,0,0,0,0,0,0,0,0,0,0,0,0,9410,0,0,0,0,0,0,0,0,0,0,0,0,0,0,0,0,0,0,0,0,0,0,0,181311
re,0,0,0,0,0,0,0,0,75108,0,0,0,0,0,290,0,0,0,0,0,0,0,0,0,0,1390,0,0,0,0,0,0,0,0,0,0,0,0,0,0,0,0,0,0,0,0,0,0,2,2694,0,0,0,0,0,0,0,0,0,0,0,0,0,0,0,0,0,0,0,0,0,0,0,79484
ro,0,0,0,0,34,0,107,0,6240477,0,0,0,0,357,32,6,0,0,0,0,8498,179,288,0,0,11299,0,0,0,0,3,0,3,1,13,0,8,0,0,0,0,0,0,0,0,0,0,0,57791,88102,0,38,0,0,2,0,379,0,57,0,0,0,0,0,0,0,0,0,0,0,169,0,0,6407843
rs,0,0,0,0,0,0,0,0,2184373,0,0,0,0,0,0,1,0,0,0,0,11453,3641,105,0,0,4423,0,0,0,0,0,0,3,3,0,0,10,0,0,0,0,0,0,0,0,0,0,0,1786,18114,0,0,0,0,350,0,0,0,221,0,0,0,0,0,0,0,0,0,0,0,3,20,0,2224506
sc,0,0,0,0,0,0,0,0,84122,0,0,0,0,0,0,0,0,0,0,0,0,0,0,0,0,0,0,0,0,0,0,0,0,0,209,0,0,0,0,0,0,0,0,0,0,0,0,0,0,2413,0,0,0,0,0,0,0,0,0,0,0,0,0,0,0,0,0,0,0,0,145771,0,0,232515
sg,0,0,0,0,0,26,224,0,1495758,0,0,0,0,0,0,715,0,0,0,0,0,6,10,0,0,1685,0,0,0,0,0,0,75,0,1285,0,835,0,0,0,0,0,0,0,0,0,0,0,199,70672,0,0,0,0,0,0,1079,0,3,0,0,0,0,0,0,0,0,0,14,0,870,0,0,1573456
sh,0,0,0,0,0,0,0,0,37073,0,0,0,0,0,0,0,0,0,0,0,0,0,0,0,0,0,0,0,0,0,0,0,0,0,6417,0,0,0,0,0,0,0,0,0,0,0,0,0,0,11,0,0,0,0,0,0,0,0,0,0,0,0,0,0,0,0,0,0,0,0,0,0,0,43501
th,0,0,0,0,0,0,0,0,5203465,0,0,0,303,0,1,1,0,0,0,0,1,132,112,0,0,6018,0,0,0,0,1,0,2883,3,13485,104,15882,0,0,29790,0,0,0,0,0,85834,0,0,698,96839,97,0,0,0,0,0,14759,0,481,0,0,0,0,0,0,0,0,0,1,0,7382,24,0,5478296
uk,0,0,0,0,9,16,328,0,28182132,0,56,0,0,0,2783,1016,1,0,0,0,87,2468,885,0,43,129662,0,10,0,0,10,0,55,22,34,0,826,0,3,0,0,0,0,0,0,0,0,0,1504,1852293,0,2,0,0,50,0,375,0,795,0,0,0,352,0,0,0,0,0,9,0,594,18,0,30176438
za,0,0,0,0,0,0,152,0,4458944,0,0,0,0,0,614,1,0,0,0,0,0,0,31,0,0,23503,0,0,0,0,1,0,3,3,0,0,87,0,0,0,0,0,0,0,0,0,0,0,164,123950,0,0,0,0,0,0,194,0,12,0,0,0,0,0,0,0,0,0,0,0,3,1,0,4607663
zw,0,0,0,0,0,0,0,0,69998,0,0,0,0,0,0,0,0,0,0,0,0,0,0,0,0,0,0,0,0,0,0,0,0,0,0,0,0,0,0,0,0,0,0,0,0,0,0,0,0,1925,0,0,0,0,0,0,0,0,0,0,0,0,0,0,0,0,0,0,0,0,0,0,0,71923
,7,675,148,70,5642,2446,6059,2118,507875285,5116,72,3,303,357,386009,2596,1,408,36,4,1977433,4687449,18333,513,3274,3142204,128342,25256,2,87364,208,208,79972,2587,90310,104,3468699,1,916,29796,158,8,71,31464,6,85886,35,2,2471650,18549181,175,813043,275,1210,2245,35,13111299,6,13822,104,1,21,352,46,8,106,167,1,2678,182,883552,2287,14,
